#  E [GeV]   E^{2} #times # per interaction [GeV]
  1.0000e+00   9.85e+00
  1.0475e+00   1.02e+01
  1.0973e+00   1.06e+01
  1.1494e+00   1.10e+01
  1.2040e+00   1.13e+01
  1.2612e+00   1.17e+01
  1.3211e+00   1.20e+01
  1.3839e+00   1.23e+01
  1.4497e+00   1.26e+01
  1.5185e+00   1.30e+01
  1.5907e+00   1.33e+01
  1.6662e+00   1.36e+01
  1.7454e+00   1.40e+01
  1.8283e+00   1.43e+01
  1.9152e+00   1.47e+01
  2.0062e+00   1.50e+01
  2.1015e+00   1.54e+01
  2.2013e+00   1.58e+01
  2.3059e+00   1.61e+01
  2.4155e+00   1.64e+01
  2.5302e+00   1.67e+01
  2.6504e+00   1.70e+01
  2.7764e+00   1.73e+01
  2.9083e+00   1.75e+01
  3.0464e+00   1.78e+01
  3.1912e+00   1.80e+01
  3.3428e+00   1.82e+01
  3.5016e+00   1.84e+01
  3.6679e+00   1.85e+01
  3.8422e+00   1.87e+01
  4.0247e+00   1.88e+01
  4.2160e+00   1.88e+01
  4.4163e+00   1.89e+01
  4.6261e+00   1.89e+01
  4.8458e+00   1.89e+01
  5.0761e+00   1.88e+01
  5.3172e+00   1.87e+01
  5.5698e+00   1.86e+01
  5.8345e+00   1.84e+01
  6.1117e+00   1.82e+01
  6.4020e+00   1.80e+01
  6.7062e+00   1.77e+01
  7.0248e+00   1.74e+01
  7.3585e+00   1.71e+01
  7.7081e+00   1.67e+01
  8.0743e+00   1.63e+01
  8.4579e+00   1.59e+01
  8.8598e+00   1.54e+01
  9.2807e+00   1.50e+01
  9.7216e+00   1.45e+01
  1.0183e+01   1.39e+01
  1.0667e+01   1.34e+01
  1.1174e+01   1.28e+01
  1.1705e+01   1.22e+01
  1.2261e+01   1.16e+01
  1.2844e+01   1.10e+01
  1.3454e+01   1.05e+01
  1.4093e+01   9.84e+00
  1.4763e+01   9.31e+00
  1.5464e+01   8.72e+00
  1.6199e+01   8.15e+00
  1.6968e+01   7.63e+00
  1.7774e+01   7.04e+00
  1.8619e+01   6.56e+00
  1.9503e+01   6.03e+00
  2.0430e+01   5.54e+00
  2.1400e+01   5.09e+00
  2.2417e+01   4.59e+00
  2.3482e+01   4.22e+00
  2.4598e+01   3.81e+00
  2.5766e+01   3.44e+00
  2.6991e+01   3.11e+00
  2.8273e+01   2.75e+00
  2.9616e+01   2.49e+00
  3.1023e+01   2.20e+00
  3.2497e+01   1.95e+00
  3.4041e+01   1.73e+00
  3.5658e+01   1.49e+00
  3.7352e+01   1.32e+00
  3.9127e+01   1.14e+00
  4.0986e+01   9.83e-01
  4.2933e+01   8.49e-01
  4.4973e+01   7.10e-01
  4.7109e+01   6.18e-01
  4.9348e+01   5.17e-01
  5.1692e+01   4.40e-01
  5.4148e+01   3.73e-01
  5.6720e+01   3.07e-01
  5.9415e+01   2.66e-01
  6.2238e+01   2.21e-01
  6.5195e+01   1.90e-01
  6.8292e+01   1.65e-01
  7.1537e+01   1.40e-01
  7.4935e+01   1.26e-01
  7.8496e+01   1.11e-01
  8.2225e+01   1.00e-01
  8.6131e+01   9.03e-02
  9.0223e+01   8.16e-02
  9.4510e+01   7.85e-02
  9.9000e+01   7.50e-02
