
   ... processing Test1_DSPH ...
x= r [kpc] ,  y= #beta_{ani}
       x              y
  1.0000e-02   -1.00e+00
  1.3869e-02   -1.00e+00
  1.9235e-02   -1.00e+00
  2.6678e-02   -1.00e+00
  3.7000e-02   -1.00e+00
  5.1316e-02   -1.00e+00
  7.1172e-02   -1.00e+00
  9.8709e-02   -1.00e+00
  1.3690e-01   -1.00e+00
  1.8987e-01   -1.00e+00
  2.6334e-01   -1.00e+00
  3.6523e-01   -1.00e+00
  5.0654e-01   -1.00e+00
  7.0253e-01   -1.00e+00
  9.7435e-01   -1.00e+00
  1.3513e+00   -1.00e+00
  1.8742e+00   -1.00e+00
  2.5994e+00   -1.00e+00
  3.6051e+00   -1.00e+00
  5.0000e+00   -1.00e+00

   ... processing Test2_DSPH ...
x= r [kpc] ,  y= #beta_{ani}
       x              y
  1.0000e-02   -1.00e+00
  1.3869e-02   -1.00e+00
  1.9235e-02   -1.00e+00
  2.6678e-02   -1.00e+00
  3.7000e-02   -1.00e+00
  5.1316e-02   -1.00e+00
  7.1172e-02   -1.00e+00
  9.8709e-02   -1.00e+00
  1.3690e-01   -1.00e+00
  1.8987e-01   -1.00e+00
  2.6334e-01   -1.00e+00
  3.6523e-01   -1.00e+00
  5.0654e-01   -1.00e+00
  7.0253e-01   -1.00e+00
  9.7435e-01   -1.00e+00
  1.3513e+00   -1.00e+00
  1.8742e+00   -1.00e+00
  2.5994e+00   -1.00e+00
  3.6051e+00   -1.00e+00
  5.0000e+00   -1.00e+00

   ... processing Test3_DSPH ...
x= r [kpc] ,  y= #beta_{ani}
       x              y
  1.0000e-02   -1.00e+00
  1.3869e-02   -1.00e+00
  1.9235e-02   -1.00e+00
  2.6678e-02   -1.00e+00
  3.7000e-02   -1.00e+00
  5.1316e-02   -1.00e+00
  7.1172e-02   -1.00e+00
  9.8709e-02   -1.00e+00
  1.3690e-01   -1.00e+00
  1.8987e-01   -1.00e+00
  2.6334e-01   -1.00e+00
  3.6523e-01   -1.00e+00
  5.0654e-01   -1.00e+00
  7.0253e-01   -1.00e+00
  9.7435e-01   -1.00e+00
  1.3513e+00   -1.00e+00
  1.8742e+00   -1.00e+00
  2.5994e+00   -1.00e+00
  3.6051e+00   -1.00e+00
  5.0000e+00   -1.00e+00

   ... processing Test4_DSPH ...
x= r [kpc] ,  y= #beta_{ani}
       x              y
  1.0000e-02   -1.00e+00
  1.3869e-02   -1.00e+00
  1.9235e-02   -1.00e+00
  2.6678e-02   -1.00e+00
  3.7000e-02   -1.00e+00
  5.1316e-02   -1.00e+00
  7.1172e-02   -1.00e+00
  9.8709e-02   -1.00e+00
  1.3690e-01   -1.00e+00
  1.8987e-01   -1.00e+00
  2.6334e-01   -1.00e+00
  3.6523e-01   -1.00e+00
  5.0654e-01   -1.00e+00
  7.0253e-01   -1.00e+00
  9.7435e-01   -1.00e+00
  1.3513e+00   -1.00e+00
  1.8742e+00   -1.00e+00
  2.5994e+00   -1.00e+00
  3.6051e+00   -1.00e+00
  5.0000e+00   -1.00e+00

   ... processing Test5_DSPH ...
x= r [kpc] ,  y= #beta_{ani}
       x              y
  1.0000e-02   -1.00e+00
  1.3869e-02   -1.00e+00
  1.9235e-02   -1.00e+00
  2.6678e-02   -1.00e+00
  3.7000e-02   -1.00e+00
  5.1316e-02   -1.00e+00
  7.1172e-02   -1.00e+00
  9.8709e-02   -1.00e+00
  1.3690e-01   -1.00e+00
  1.8987e-01   -1.00e+00
  2.6334e-01   -1.00e+00
  3.6523e-01   -1.00e+00
  5.0654e-01   -1.00e+00
  7.0253e-01   -1.00e+00
  9.7435e-01   -1.00e+00
  1.3513e+00   -1.00e+00
  1.8742e+00   -1.00e+00
  2.5994e+00   -1.00e+00
  3.6051e+00   -1.00e+00
  5.0000e+00   -1.00e+00

   ... processing Test6_DSPH ...
x= r [kpc] ,  y= #beta_{ani}
       x              y
  1.0000e-02   -1.00e+00
  1.3869e-02   -1.00e+00
  1.9235e-02   -1.00e+00
  2.6678e-02   -1.00e+00
  3.7000e-02   -1.00e+00
  5.1316e-02   -1.00e+00
  7.1172e-02   -1.00e+00
  9.8709e-02   -1.00e+00
  1.3690e-01   -1.00e+00
  1.8987e-01   -1.00e+00
  2.6334e-01   -1.00e+00
  3.6523e-01   -1.00e+00
  5.0654e-01   -1.00e+00
  7.0253e-01   -1.00e+00
  9.7435e-01   -1.00e+00
  1.3513e+00   -1.00e+00
  1.8742e+00   -1.00e+00
  2.5994e+00   -1.00e+00
  3.6051e+00   -1.00e+00
  5.0000e+00   -1.00e+00

   ... processing Test7_DSPH ...
x= r [kpc] ,  y= #beta_{ani}
       x              y
  1.0000e-02   -1.00e+00
  1.3869e-02   -1.00e+00
  1.9235e-02   -1.00e+00
  2.6678e-02   -1.00e+00
  3.7000e-02   -1.00e+00
  5.1316e-02   -1.00e+00
  7.1172e-02   -1.00e+00
  9.8709e-02   -1.00e+00
  1.3690e-01   -1.00e+00
  1.8987e-01   -1.00e+00
  2.6334e-01   -1.00e+00
  3.6523e-01   -1.00e+00
  5.0654e-01   -1.00e+00
  7.0253e-01   -1.00e+00
  9.7435e-01   -1.00e+00
  1.3513e+00   -1.00e+00
  1.8742e+00   -1.00e+00
  2.5994e+00   -1.00e+00
  3.6051e+00   -1.00e+00
  5.0000e+00   -1.00e+00

   ... processing Test8_DSPH ...
x= r [kpc] ,  y= #beta_{ani}
       x              y
  1.0000e-02   -1.00e+00
  1.3869e-02   -1.00e+00
  1.9235e-02   -1.00e+00
  2.6678e-02   -1.00e+00
  3.7000e-02   -1.00e+00
  5.1316e-02   -1.00e+00
  7.1172e-02   -1.00e+00
  9.8709e-02   -1.00e+00
  1.3690e-01   -1.00e+00
  1.8987e-01   -1.00e+00
  2.6334e-01   -1.00e+00
  3.6523e-01   -1.00e+00
  5.0654e-01   -1.00e+00
  7.0253e-01   -1.00e+00
  9.7435e-01   -1.00e+00
  1.3513e+00   -1.00e+00
  1.8742e+00   -1.00e+00
  2.5994e+00   -1.00e+00
  3.6051e+00   -1.00e+00
  5.0000e+00   -1.00e+00

   ... processing Test9_DSPH ...
x= r [kpc] ,  y= #beta_{ani}
       x              y
  1.0000e-02   -1.00e+00
  1.3869e-02   -1.00e+00
  1.9235e-02   -1.00e+00
  2.6678e-02   -1.00e+00
  3.7000e-02   -1.00e+00
  5.1316e-02   -1.00e+00
  7.1172e-02   -1.00e+00
  9.8709e-02   -1.00e+00
  1.3690e-01   -9.99e-01
  1.8987e-01   -9.97e-01
  2.6334e-01   -9.90e-01
  3.6523e-01   -9.65e-01
  5.0654e-01   -8.76e-01
  7.0253e-01   -6.08e-01
  9.7435e-01   -5.19e-02
  1.3513e+00   5.39e-01
  1.8742e+00   8.50e-01
  2.5994e+00   9.57e-01
  3.6051e+00   9.88e-01
  5.0000e+00   9.97e-01

   ... processing Test10_DSPH ...
x= r [kpc] ,  y= #beta_{ani}
       x              y
  1.0000e-02   1.00e-04
  1.3869e-02   1.92e-04
  1.9235e-02   3.70e-04
  2.6678e-02   7.11e-04
  3.7000e-02   1.37e-03
  5.1316e-02   2.63e-03
  7.1172e-02   5.04e-03
  9.8709e-02   9.65e-03
  1.3690e-01   1.84e-02
  1.8987e-01   3.48e-02
  2.6334e-01   6.48e-02
  3.6523e-01   1.18e-01
  5.0654e-01   2.04e-01
  7.0253e-01   3.30e-01
  9.7435e-01   4.87e-01
  1.3513e+00   6.46e-01
  1.8742e+00   7.78e-01
  2.5994e+00   8.71e-01
  3.6051e+00   9.29e-01
  5.0000e+00   9.62e-01
