# Matter power spectrum P(k) at redshift z=2.9
# for k=1.03955e-05 to 5215.48 h/Mpc,
# number of wavenumbers equal to 149
#    1:k (h/Mpc)              2:P (Mpc/h)^3        
       1.039554593366e-05       5.136498738706e+00 
       1.308721694535e-05       6.418545902405e+00 
       1.647582998217e-05       8.020580469425e+00 
       2.074184104495e-05       1.002246283672e+01 
       2.611243077888e-05       1.252397872678e+01 
       3.287360267125e-05       1.564980557029e+01 
       4.138541378007e-05       1.955571007104e+01 
       5.210114908534e-05       2.443628041630e+01 
       6.559146056721e-05       3.053455901778e+01 
       8.257475650476e-05       3.815402373686e+01 
       1.039554593366e-04       4.767345237305e+01 
       1.308721694535e-04       5.956527979720e+01 
       1.647582998217e-04       7.441811762339e+01 
       2.074184104495e-04       9.296407141279e+01 
       2.611243077888e-04       1.161112888871e+02 
       3.287360267125e-04       1.449816100025e+02 
       4.138541378007e-04       1.809519929335e+02 
       5.210114908534e-04       2.256962071577e+02 
       6.559146056721e-04       2.812199200289e+02 
       8.257475650476e-04       3.498783716214e+02 
       1.039554593366e-03       4.343634888899e+02 
       1.308721694535e-03       5.376480450578e+02 
       1.647582998217e-03       6.628498713509e+02 
       2.074184104495e-03       8.130234964109e+02 
       2.611243077888e-03       9.906376708988e+02 
       3.287360267125e-03       1.196863129657e+03 
       4.138541378007e-03       1.430623335202e+03 
       5.210114908534e-03       1.687280897877e+03 
       6.559146056721e-03       1.957105873769e+03 
       8.257475650476e-03       2.223524654391e+03 
       1.039554593366e-02       2.461460384645e+03 
       1.308721694535e-02       2.636209802695e+03 
       1.647582998214e-02       2.705267560703e+03 
       2.074184088572e-02       2.626703393886e+03 
       2.611230840193e-02       2.380877434203e+03 
       3.285653182045e-02       2.005189331153e+03 
       4.081332843164e-02       1.628716491614e+03 
       4.754021716107e-02       1.412832718918e+03 
       5.241547480738e-02       1.307046408971e+03 
       5.643282856264e-02       1.241252014251e+03 
       6.001833682243e-02       1.191655473379e+03 
       6.336166044928e-02       1.148319988112e+03 
       6.656307139837e-02       1.106249975272e+03 
       6.968264494082e-02       1.062775954688e+03 
       7.275981836318e-02       1.016620544825e+03 
       7.582237227446e-02       9.674674962566e+02 
       7.889102481454e-02       9.157254503473e+02 
       8.198198315273e-02       8.623429596494e+02 
       8.510845469814e-02       8.086336749668e+02 
       8.828158949124e-02       7.560979589734e+02 
       9.151109307600e-02       7.062420961274e+02 
       9.480563909718e-02       6.604087576364e+02 
       9.817315512484e-02       6.196365663103e+02 
       1.016210253698e-01       5.845464960537e+02 
       1.051562372192e-01       5.552796915182e+02 
       1.087854887544e-01       5.314714084773e+02 
       1.125152685187e-01       5.122639650358e+02 
       1.163519151387e-01       4.963628988354e+02 
       1.203016620718e-01       4.821532560938e+02 
       1.243706712418e-01       4.678883849437e+02 
       1.285650583271e-01       4.519589364893e+02 
       1.328909118087e-01       4.332125457687e+02 
       1.373543074419e-01       4.112215307083e+02 
       1.419613195248e-01       3.864294214185e+02 
       1.467180301457e-01       3.600743610131e+02 
       1.516305374617e-01       3.338944861852e+02 
       1.567049639876e-01       3.097107679297e+02 
       1.619474658202e-01       2.889534788140e+02 
       1.673642436914e-01       2.723056002253e+02 
       1.729615567289e-01       2.595531490730e+02 
       1.787457397832e-01       2.496041561315e+02 
       1.847232251771e-01       2.408595387916e+02 
       1.909005697246e-01       2.315237673435e+02 
       1.972844878737e-01       2.202194115705e+02 
       2.038818918359e-01       2.067148095996e+02 
       2.106999396018e-01       1.919764417123e+02 
       2.177460917977e-01       1.775930666970e+02 
       2.250281784350e-01       1.649764142733e+02 
       2.325544767517e-01       1.548638063395e+02 
       2.403338015606e-01       1.470632714812e+02 
       2.483756098215e-01       1.404751584717e+02 
       2.566901215724e-01       1.337134839065e+02 
       2.652884599139e-01       1.259495039806e+02 
       2.741828134909e-01       1.173038869469e+02 
       2.833866259052e-01       1.087133341955e+02 
       2.929148178032e-01       1.012369467582e+02 
       3.027840491167e-01       9.518142419064e+01 
       3.130130312448e-01       9.001892834109e+01 
       3.236229020692e-01       8.491349853771e+01 
       3.346376808976e-01       7.938000953586e+01 
       3.460848262041e-01       7.372240389702e+01 
       3.579959270564e-01       6.853970545645e+01 
       3.704075704423e-01       6.411141491169e+01 
       3.833624429267e-01       6.009598421063e+01 
       3.969107487182e-01       5.606375896705e+01 
       4.111120613410e-01       5.199171857190e+01 
       4.260377793153e-01       4.818672758637e+01 
       4.417744386818e-01       4.475549824125e+01 
       4.584282660567e-01       4.151225155897e+01 
       4.761315693280e-01       3.829414530652e+01 
       4.950519218633e-01       3.522136579735e+01 
       5.154057199787e-01       3.237063939577e+01 
       5.374788205876e-01       2.959755623075e+01 
       5.616590926020e-01       2.690878419054e+01 
       5.884899305890e-01       2.433830860332e+01 
       6.187626138371e-01       2.181552932946e+01 
       6.536851165952e-01       1.934681156432e+01 
       6.952121405854e-01       1.688711099547e+01 
       7.467418170057e-01       1.440658449863e+01 
       8.147051579372e-01       1.185053626497e+01 
       9.123223049594e-01       9.169834798008e+00 
       1.066600871110e+00       6.405636065025e+00 
       1.312333712991e+00       3.948276865336e+00 
       1.649322590380e+00       2.294152398407e+00 
       2.076320274967e+00       1.315760329316e+00 
       2.613932154499e+00       7.483933843916e-01 
       3.290745613896e+00       4.225229019586e-01 
       4.142803277084e+00       2.369366251792e-01 
       5.215480321585e+00       1.320500683653e-01 
       6.565900711556e+00       7.318087562225e-02 
       8.265979257096e+00       4.034727614807e-02 
       1.040625134012e+01       2.213967864080e-02 
       1.310069425360e+01       1.209557560325e-02 
       1.649279690800e+01       6.581339963120e-03 
       2.076320113904e+01       3.567369585263e-03 
       2.613932154413e+01       1.926755144867e-03 
       3.290745613896e+01       1.037108304069e-03 
       4.142803277084e+01       5.563571962508e-04 
       5.215480321585e+01       2.974485923733e-04 
       6.565900711556e+01       1.584600299117e-04 
       8.265979257096e+01       8.408194420428e-05 
       1.040625134012e+02       4.440630227373e-05 
       1.310069425360e+02       2.331371393963e-05 
       1.649279690800e+02       1.214495033708e-05 
       2.076320113904e+02       6.260018947330e-06 
       2.613932154413e+02       3.180578198556e-06 
       3.290745613896e+02       1.585584526868e-06 
       4.142803277084e+02       7.723562187617e-07 
       5.215480321585e+02       3.671094729787e-07 
       6.565900711556e+02       1.710765217920e-07 
       8.265979257096e+02       7.895616214865e-08 
       1.040625134012e+03       3.646510599097e-08 
       1.310069425360e+03       1.702790588055e-08 
       1.649279690800e+03       8.180699307454e-09 
       2.076320113904e+03       4.122422463974e-09 
       2.613932154413e+03       2.173054390414e-09 
       3.290745613896e+03       1.140870769689e-09 
       4.142803277084e+03       5.641501550288e-10 
       5.215480321585e+03       2.859128391589e-10 
