# Matter power spectrum P(k) at redshift z=9.75
# for k=1.03822e-05 to 10392.9 h/Mpc,
# number of wavenumbers equal to 152
#    1:k (h/Mpc)              2:P (Mpc/h)^3        
       1.038219230196e-05       7.311690563373e-01 
       1.307040571907e-05       9.120473956540e-01 
       1.645466590220e-05       1.137671252609e+00 
       2.071519704687e-05       1.419109135671e+00 
       2.607888797262e-05       1.770166962323e+00 
       3.283137478007e-05       2.208064475624e+00 
       4.133225201477e-05       2.754278298429e+00 
       5.203422238807e-05       3.435592066236e+00 
       6.550720484729e-05       4.285403498105e+00 
       8.246868483786e-05       5.345349148326e+00 
       1.038219230196e-04       6.667319915500e+00 
       1.307040571907e-04       8.315953128271e+00 
       1.645466590220e-04       1.037169775443e+01 
       2.071519704687e-04       1.293455271531e+01 
       2.607888797262e-04       1.612856333109e+01 
       3.283137478007e-04       2.010710607341e+01 
       4.133225201477e-04       2.505885685807e+01 
       5.203422238807e-04       3.121405358618e+01 
       6.550720484729e-04       3.885012378526e+01 
       8.246868483786e-04       4.829483310564e+01 
       1.038219230196e-03       5.992380869153e+01 
       1.307040571907e-03       7.414803573622e+01 
       1.645466590220e-03       9.138488907910e+01 
       2.071519704687e-03       1.120213472177e+02 
       2.607888797262e-03       1.363559985099e+02 
       3.283137478007e-03       1.645240394203e+02 
       4.133225201477e-03       1.963605318288e+02 
       5.203422238807e-03       2.312039825230e+02 
       6.550720484729e-03       2.677058901267e+02 
       8.246868483786e-03       3.035932795108e+02 
       1.038219230196e-02       3.354515301434e+02 
       1.307040571907e-02       3.586022190711e+02 
       1.645466590218e-02       3.673444708135e+02 
       2.071519688507e-02       3.560987915237e+02 
       2.607876417226e-02       3.223460273262e+02 
       3.281416722823e-02       2.712544777689e+02 
       4.075744376176e-02       2.202779783093e+02 
       4.746658777003e-02       1.910969222501e+02 
       5.233009061300e-02       1.767766253738e+02 
       5.633876997938e-02       1.678554795038e+02 
       5.991701375256e-02       1.611230161665e+02 
       6.325382191649e-02       1.552406460469e+02 
       6.644915140549e-02       1.495335198674e+02 
       6.956290348649e-02       1.436423488855e+02 
       7.263440849079e-02       1.373947779247e+02 
       7.569137574516e-02       1.307481739429e+02 
       7.875447272837e-02       1.237576621913e+02 
       8.183986863846e-02       1.165510545766e+02 
       8.496074110659e-02       1.093052327819e+02 
       8.812821588611e-02       1.022223320783e+02 
       9.135197802118e-02       9.550501259440e+01 
       9.464068332738e-02       8.933349084057e+01 
       9.800224345987e-02       8.384700788404e+01 
       1.014440281024e-01       7.912838163907e+01 
       1.049730111281e-01       7.519550262826e+01 
       1.085958778455e-01       7.199844928420e+01 
       1.123191045667e-01       6.942048385628e+01 
       1.161490180798e-01       6.728610501189e+01 
       1.200918402850e-01       6.537685436918e+01 
       1.241537217471e-01       6.345637975576e+01 
       1.283407669205e-01       6.130689551632e+01 
       1.326590531502e-01       5.877249059391e+01 
       1.371146451078e-01       5.579655379827e+01 
       1.417136060343e-01       5.244073239615e+01 
       1.464620069664e-01       4.887491323026e+01 
       1.513659349991e-01       4.533636971889e+01 
       1.564315015614e-01       4.207251157851e+01 
       1.616648516253e-01       3.927686207872e+01 
       1.670721747463e-01       3.704051889618e+01 
       1.726597188044e-01       3.533242819791e+01 
       1.784338073098e-01       3.400208264274e+01 
       1.844008611238e-01       3.283045397600e+01 
       1.905674254422e-01       3.157301703372e+01 
       1.969402028920e-01       3.004232805971e+01 
       2.035260936059e-01       2.820849093250e+01 
       2.103322431697e-01       2.620644641616e+01 
       2.173660993969e-01       2.425596664621e+01 
       2.246354789811e-01       2.255007998648e+01 
       2.321486452227e-01       2.118750594788e+01 
       2.399143982438e-01       2.013974059228e+01 
       2.479421794051e-01       1.925447446345e+01 
       2.562421920582e-01       1.834047917129e+01 
       2.648255413223e-01       1.728499348838e+01 
       2.737043963274e-01       1.610727394803e+01 
       2.828921793508e-01       1.493835373508e+01 
       2.924037875840e-01       1.392438396262e+01 
       3.022558549994e-01       1.310612313382e+01 
       3.124670640937e-01       1.240818518440e+01 
       3.230585203843e-01       1.171467857510e+01 
       3.340542067337e-01       1.095963627266e+01 
       3.454815403454e-01       1.018721909868e+01 
       3.573720632874e-01       9.481319600970e+00 
       3.697623087076e-01       8.879463909492e+00 
       3.826949011147e-01       8.332804337734e+00 
       3.962199727176e-01       7.781590895405e+00 
       4.103970129069e-01       7.224169421531e+00 
       4.252973211223e-01       6.703933264611e+00 
       4.410073157209e-01       6.234856503268e+00 
       4.576330822164e-01       5.790566013421e+00 
       4.753067575460e-01       5.348721837191e+00 
       4.941957055755e-01       4.926798770974e+00 
       5.145160626260e-01       4.535176957191e+00 
       5.365533585280e-01       4.153322721143e+00 
       5.606950447507e-01       3.782736311404e+00 
       5.874839753840e-01       3.427988611718e+00 
       6.177107211601e-01       3.079142073090e+00 
       6.525823218278e-01       2.737232384604e+00 
       6.940522612693e-01       2.395799883963e+00 
       7.455171781678e-01       2.050645402195e+00 
       8.134065949556e-01       1.693886883048e+00 
       9.109395868563e-01       1.318195254505e+00 
       1.065113380274e+00       9.286364053223e-01 
       1.310628484582e+00       5.796222621841e-01 
       1.647201751434e+00       3.422051209932e-01 
       2.073650984165e+00       1.999482819365e-01 
       2.610571719889e+00       1.162418177184e-01 
       3.286515077374e+00       6.736869375464e-02 
       4.137477347151e+00       3.901024047814e-02 
       5.208775373051e+00       2.263448187579e-02 
       6.557459681462e+00       1.320498086701e-02 
       8.255352629808e+00       7.779548313344e-03 
       1.039287320899e+01       4.651613019732e-03 
       1.308385218435e+01       2.837921479548e-03 
       1.647159399903e+01       1.775413304027e-03 
       2.073650825814e+01       1.142971719977e-03 
       2.610571719805e+01       7.580344570649e-04 
       3.286515077374e+01       5.169096799267e-04 
       4.137477347151e+01       3.606549931579e-04 
       5.208775373051e+01       2.556349793552e-04 
       6.557459681462e+01       1.825297006975e-04 
       8.255352629808e+01       1.301373177669e-04 
       1.039287320899e+02       9.186689355858e-05 
       1.308385218435e+02       6.373729810585e-05 
       1.647159399903e+02       4.321165757216e-05 
       2.073650825814e+02       2.852394022555e-05 
       2.610571719805e+02       1.831013568674e-05 
       3.286515077374e+02       1.144231014809e-05 
       4.137477347151e+02       6.981147628515e-06 
       5.208775373051e+02       4.174843312412e-06 
       6.557459681462e+02       2.457231102947e-06 
       8.255352629808e+02       1.428590984222e-06 
       1.039287320899e+03       8.227007717816e-07 
       1.308385218435e+03       4.703074110146e-07 
       1.647159399903e+03       2.673572247786e-07 
       2.073650825814e+03       1.513593516327e-07 
       2.610571719805e+03       8.543386317308e-08 
       3.286515077374e+03       4.811950994870e-08 
       4.137477347151e+03       2.706135366007e-08 
       5.208775373051e+03       1.520221694832e-08 
       6.557459681462e+03       8.533565034174e-09 
       8.255352629808e+03       4.787599105465e-09 
       1.039287320899e+04       2.684960875373e-09 
