# Matter power spectrum P(k) at redshift z=0.0625
# for k=1.03902e-05 to 10400.9 h/Mpc,
# number of wavenumbers equal to 152
#    1:k (h/Mpc)              2:P (Mpc/h)^3        
       1.039020730028e-05       4.566235234993e+01 
       1.308049600413e-05       5.706337463478e+01 
       1.646736881847e-05       7.131100069557e+01 
       2.073118907096e-05       8.911580928053e+01 
       2.609902073814e-05       1.113658352575e+02 
       3.285672043019e-05       1.391706380515e+02 
       4.136416029779e-05       1.739164574371e+02 
       5.207439253641e-05       2.173350140031e+02 
       6.555777606783e-05       2.715890754393e+02 
       8.253235023250e-05       3.393788377758e+02 
       1.039020730028e-04       4.240735626903e+02 
       1.308049600413e-04       5.298737015663e+02 
       1.646736881847e-04       6.620088217082e+02 
       2.073118907096e-04       8.269760416034e+02 
       2.609902073814e-04       1.032821383565e+03 
       3.285672043019e-04       1.289461439096e+03 
       4.136416029779e-04       1.609034072176e+03 
       5.207439253641e-04       2.006255073109e+03 
       6.555777606783e-04       2.498744648515e+03 
       8.253235023250e-04       3.107267838070e+03 
       1.039020730028e-03       3.855767462687e+03 
       1.308049600413e-03       4.770911543747e+03 
       1.646736881847e-03       5.880631356341e+03 
       2.073118907096e-03       7.212010254935e+03 
       2.609902073814e-03       8.786851970586e+03 
       3.285672043019e-03       1.061558017457e+04 
       4.136416029779e-03       1.268859664200e+04 
       5.207439253641e-03       1.491405974406e+04 
       6.555777606783e-03       1.728336241787e+04 
       8.253235023250e-03       1.961525110610e+04 
       1.039020730028e-02       2.168406156414e+04 
       1.308049600413e-02       2.318382758249e+04 
       1.646736881845e-02       2.374123849794e+04 
       2.073118891276e-02       2.299405252248e+04 
       2.609889896706e-02       2.078248257692e+04 
       3.283971297933e-02       1.745420777978e+04 
       4.079356262944e-02       1.414886469565e+04 
       4.752015166632e-02       1.226542650270e+04 
       5.239481028097e-02       1.134698569126e+04 
       5.641131911577e-02       1.077845167243e+04 
       5.999590757796e-02       1.035158907080e+04 
       6.333828390374e-02       9.980933557218e+03 
       6.653873314774e-02       9.622395666679e+03 
       6.965733331224e-02       9.252983807161e+03 
       7.273352095174e-02       8.862626314584e+03 
       7.579507475039e-02       8.447436842197e+03 
       7.886271054522e-02       8.011457325123e+03 
       8.195263312834e-02       7.562567604022e+03 
       8.507804756739e-02       7.112154507766e+03 
       8.825010163054e-02       6.672536280533e+03 
       9.147849866152e-02       6.256267147817e+03 
       9.477191016850e-02       5.874959970342e+03 
       9.813826163670e-02       5.537017702419e+03 
       1.015849352320e-01       5.247481669585e+03 
       1.051189163259e-01       5.007213608482e+03 
       1.087469010046e-01       4.813206524728e+03 
       1.124753758293e-01       4.657876945130e+03 
       1.163106774523e-01       4.530547212532e+03 
       1.202590373600e-01       4.417623864290e+03 
       1.243266155048e-01       4.304347513656e+03 
       1.285195255917e-01       4.176926050109e+03 
       1.328438541235e-01       4.026116990322e+03 
       1.373056748713e-01       3.847999880512e+03 
       1.419110601419e-01       3.646390644692e+03 
       1.466660900219e-01       3.431681622723e+03 
       1.515768606555e-01       3.218625757723e+03 
       1.566494925298e-01       3.022293179423e+03 
       1.618901396942e-01       2.854503411685e+03 
       1.673050008094e-01       2.720761734773e+03 
       1.729003328998e-01       2.619192684222e+03 
       1.786824686726e-01       2.540472068616e+03 
       1.846578382555e-01       2.471586496054e+03 
       1.908329962029e-01       2.397524981213e+03 
       1.972146546215e-01       2.307020537109e+03 
       2.038097232820e-01       2.197921401814e+03 
       2.106253576112e-01       2.078571225405e+03 
       2.176690155230e-01       1.962111279459e+03 
       2.249485241370e-01       1.859982148634e+03 
       2.324721575858e-01       1.778170525798e+03 
       2.402487273220e-01       1.714833073512e+03 
       2.482876866447e-01       1.661086399102e+03 
       2.565992515763e-01       1.605629161949e+03 
       2.651945407848e-01       1.541852711213e+03 
       2.740857379920e-01       1.470829674478e+03 
       2.832862813012e-01       1.400218352012e+03 
       2.928110851822e-01       1.338325482241e+03 
       3.026768025905e-01       1.287533193032e+03 
       3.129021370022e-01       1.243501604036e+03 
       3.235082172493e-01       1.199694075873e+03 
       3.345190522418e-01       1.152450724749e+03 
       3.459620884306e-01       1.104160996173e+03 
       3.578689008861e-01       1.059418805211e+03 
       3.702760601777e-01       1.020241182153e+03 
       3.832262334513e-01       9.840046021517e+02 
       3.967696017356e-01       9.474930231858e+02 
       4.109657105973e-01       9.106024919661e+02 
       4.258859244430e-01       8.755088520717e+02 
       4.416167371343e-01       8.429297841493e+02 
       4.582643223479e-01       8.114822496187e+02 
       4.759609203735e-01       7.800230403828e+02 
       4.948740165338e-01       7.493133251412e+02 
       5.152198897967e-01       7.197697390694e+02 
       5.372842363932e-01       6.903644557331e+02 
       5.614546980844e-01       6.610097903630e+02 
       5.882743358543e-01       6.317441536499e+02 
       6.185339160756e-01       6.018978274665e+02 
       6.534405790436e-01       5.711444428812e+02 
       6.949475751758e-01       5.386711532326e+02 
       7.464502966034e-01       5.033913344709e+02 
       8.143741099258e-01       4.634146697167e+02 
       9.119268599882e-01       4.156185943107e+02 
       1.066093864103e+00       3.558821174509e+02 
       1.311666547981e+00       2.855957197323e+02 
       1.648476358058e+00       2.182620627092e+02 
       2.075254743611e+00       1.608126100897e+02 
       2.612590728999e+00       1.141138863179e+02 
       3.289056859246e+00       7.812937596595e+01 
       4.140677260941e+00       5.184634685465e+01 
       5.212803825837e+00       3.352375288707e+01 
       6.562531203044e+00       2.122943347830e+01 
       8.261737297205e+00       1.322636307951e+01 
       1.040091102902e+01       8.137676656548e+00 
       1.309397120024e+01       4.959473633820e+00 
       1.648433308529e+01       3.001051027096e+00 
       2.075254581754e+01       1.806341702307e+00 
       2.612590728913e+01       1.082950983983e+00 
       3.289056859246e+01       6.473579560545e-01 
       4.140677260941e+01       3.861338416484e-01 
       5.212803825837e+01       2.299505330332e-01 
       6.562531203044e+01       1.367778921124e-01 
       8.261737297205e+01       8.128618191884e-02 
       1.040091102902e+02       4.827654724175e-02 
       1.309397120024e+02       2.865812176945e-02 
       1.648433308529e+02       1.700613066958e-02 
       2.075254581754e+02       1.008903503468e-02 
       2.612590728913e+02       5.984249443382e-03 
       3.289056859246e+02       3.549012852730e-03 
       4.140677260941e+02       2.104551045308e-03 
       5.212803825837e+02       1.247892944282e-03 
       6.562531203044e+02       7.398948729384e-04 
       8.261737297205e+02       4.386762038392e-04 
       1.040091102902e+03       2.600784380853e-04 
       1.309397120024e+03       1.541893638360e-04 
       1.648433308529e+03       9.141067861585e-05 
       2.075254581754e+03       5.419183537980e-05 
       2.612590728913e+03       3.212673934548e-05 
       3.289056859246e+03       1.904567534474e-05 
       4.140677260941e+03       1.129077719577e-05 
       5.212803825837e+03       6.693443777514e-06 
       6.562531203044e+03       3.968022810566e-06 
       8.261737297205e+03       2.352327473280e-06 
       1.040091102902e+04       1.394507071411e-06 
